<?xml version="1.0"?>
<!-- Copyright (c) 2016 The UUV Simulator Authors.
     All rights reserved.

     Licensed under the Apache License, Version 2.0 (the "License");
     you may not use this file except in compliance with the License.
     You may obtain a copy of the License at

       http://www.apache.org/licenses/LICENSE-2.0

     Unless required by applicable law or agreed to in writing, software
     distributed under the License is distributed on an "AS IS" BASIS,
     WITHOUT WARRANTIES OR CONDITIONS OF ANY KIND, either express or implied.
     See the License for the specific language governing permissions and
     limitations under the License.
-->

<robot xmlns:xacro="http://www.ros.org/wiki/xacro">
    <!--
    Center of buoyancy according to eq. (3.1) p. 28 in Berg2012.
    The original values, [0.0822, -0.00773, 0.3872] however, seem to
    assume NWU (otherwise cob is below cog?).
    -->
    <xacro:property name="cob" value="0.0 0.0 0.4"/>

    <!-- Volume, see p.31 in Berg2012 -->
    <xacro:property name="volume" value="0.0213186821"/>

    <xacro:macro name="qubo_hydro_model" params="namespace">
        <link name="${namespace}/base_link">
            <neutrally_buoyant>0</neutrally_buoyant>
            <volume>${volume}</volume>
            <box>
                <width>.5334</width>
                <length>.61565</length>
                <height>.492125</height>
            </box>
            <center_of_buoyancy>${cob}</center_of_buoyancy>
            <hydrodynamic_model>
                <type>fossen</type>
                <!-- Added mass: see p.28 in Berg2012 -->
                <added_mass>
                    7.7979 -0.068773 -1.0332 .085426 -1.6554 -.078033                  
                    -.068773 12.22 0.5129 4.0944 -0.058488 0.62726                      
                    -1.0332 0.5129 36.599 0.61112 -3.8642 0.10774                     
                    .085426 4.0944 .061112 5.349 -0.10027 0.21019                     
                    -1.6554 -.058488 -3.8642 -0.10027 8.4269 -.011162                 
                    -.078033 0.62726 0.10775 0.21019 -.011162 2.2432 
                </added_mass>
                <!-- Linear damping: see p.31 in Berg2012 -->
                <linear_damping>
                   -1.4 -1.3 -1.4 -5 -6 -2 
                </linear_damping>
                <!-- Non-linear damping: see p.30 in Berg2012 -->
                <quadratic_damping>
                   -15 -20 -36 -13 -15 -10 
                </quadratic_damping>
            </hydrodynamic_model>
        </link>
    </xacro:macro>

</robot>
