<?xml version="1.0"?>
<!-- Copyright (c) 2016 The UUV Simulator Authors.
     All rights reserved.

     Licensed under the Apache License, Version 2.0 (the "License");
     you may not use this file except in compliance with the License.
     You may obtain a copy of the License at

       http://www.apache.org/licenses/LICENSE-2.0

     Unless required by applicable law or agreed to in writing, software
     distributed under the License is distributed on an "AS IS" BASIS,
     WITHOUT WARRANTIES OR CONDITIONS OF ANY KIND, either express or implied.
     See the License for the specific language governing permissions and
     limitations under the License.
-->
<robot xmlns:xacro="http://www.ros.org/wiki/xacro">
  <!-- DVL  -->
  <xacro:default_dvl_macro
    namespace="${namespace}"
    parent_link="${namespace}/base_link"
    inertial_reference_frame="${inertial_reference_frame}">
    <origin xyz="0 0 0" rpy="0 ${0.5*pi} 0"/>
  </xacro:default_dvl_macro>

  <!-- Magnetometer  -->
  <xacro:default_magnetometer namespace="${namespace}" parent_link="${namespace}/base_link"/>

  <!-- RPT  -->
  <xacro:default_rpt namespace="${namespace}" parent_link="${namespace}/base_link">
    <origin xyz="0 0 0" rpy="0 0 0"/>
  </xacro:default_rpt>

  <!-- Pressure  -->
  <xacro:default_pressure_macro namespace="${namespace}" parent_link="${namespace}/base_link">
    <origin xyz="0 0 0" rpy="0 0 0"/>
  </xacro:default_pressure_macro>

  <!-- IMU  -->
  <xacro:default_imu_macro
    namespace="${namespace}"
    parent_link="${namespace}/base_link"
    inertial_reference_frame="${inertial_reference_frame}">
    <origin xyz="0 0 0" rpy="0 0 0"/>
  </xacro:default_imu_macro>

  <!-- Mount a camera -->

  <xacro:default_camera namespace="${namespace}" parent_link="${namespace}/base_link" suffix="right">
    <origin xyz="0.08 .49 0.2" rpy="0 0 1.57079632679"/>
  </xacro:default_camera>

  <xacro:default_camera namespace="${namespace}" parent_link="${namespace}/base_link" suffix="left">
    <origin xyz="-0.08 .49 0.2" rpy="0 0 1.57079632679"/>                      
  </xacro:default_camera>

  <!-- Mount a GPS. -->
  <xacro:default_gps namespace="${namespace}" parent_link="${namespace}/base_link" />

  <!-- Mount a Pose 3D sensor. -->
  <xacro:default_pose_3d_macro
    namespace="${namespace}"
    parent_link="${namespace}/base_link"
    inertial_reference_frame="${inertial_reference_frame}" />
</robot>
